<?xml version="1.0" encoding="utf-8"?>
<!-- Generator: Adobe Illustrator 17.0.0, SVG Export Plug-In . SVG Version: 6.00 Build 0)  -->
<!DOCTYPE svg PUBLIC "-//W3C//DTD SVG 1.1//EN" "http://www.w3.org/Graphics/SVG/1.1/DTD/svg11.dtd">
<svg version="1.1" id="pagedaccueil-sansaction" xmlns="http://www.w3.org/2000/svg" xmlns:xlink="http://www.w3.org/1999/xlink"
	 x="0px" y="0px" width="50.275px" height="39.099px" viewBox="0 0 50.275 39.099" enable-background="new 0 0 50.275 39.099"
	 xml:space="preserve">
<path d="M23.305,32.112c-0.654,0.049-1.123,0.084-1.639,0.123c-0.412,1.388,0.545,3.723-1.932,3.674
	c-2.301-0.045-1.482-2.187-1.769-3.634c-4.174,0-8.343,0-12.706,0c0,0.674,0.016,1.336-0.004,1.996
	c-0.033,1.125-0.557,1.686-1.562,1.706c-1.031,0.021-1.664-0.607-1.717-1.716c-0.016-0.319-0.027-0.641,0-0.958
	c0.072-0.824-0.055-1.391-1.115-1.372c-0.264,0.004-0.76-0.578-0.773-0.906C0.013,29.23-0.079,27.416,0.12,25.64
	c0.084-0.755,0.84-1.448,1.332-2.139c0.35-0.494,0.883-0.885,1.133-1.416c0.543-1.152,1.01-2.348,1.412-3.557
	c0.475-1.423,1.5-2.055,2.893-2.075c3.236-0.045,6.476-0.041,9.714-0.001c1.352,0.016,2.352,0.639,2.82,1.997
	c0.352,1.018,0.793,2.003,1.154,3.018c0.352,0.986,0.746,1.855,1.774,2.409c0.465,0.251,0.885,1.018,0.912,1.57
	C23.365,27.631,23.305,29.823,23.305,32.112z M19.358,23.104c-0.592-1.553-1.039-2.916-1.648-4.2
	c-0.164-0.349-0.82-0.65-1.256-0.658c-3.152-0.055-6.309-0.066-9.46,0.011c-0.479,0.012-1.16,0.452-1.369,0.88
	c-0.603,1.233-1.014,2.561-1.543,3.967C9.189,23.104,14.154,23.104,19.358,23.104z M19.832,25.059
	c-0.992-0.017-1.746,0.726-1.74,1.716c0.004,0.919,0.729,1.726,1.59,1.773c0.865,0.047,1.73-0.837,1.734-1.774
	C21.422,25.769,20.781,25.076,19.832,25.059z M3.724,25.058c-0.936-0.01-1.66,0.714-1.637,1.678
	c0.022,0.987,0.551,1.565,1.531,1.649c0.924,0.08,1.691-0.669,1.721-1.608C5.368,25.82,4.661,25.067,3.724,25.058z"/>
<path d="M31.799,39.099c-1.676,0-3.227,0-4.93,0c0-13.022,0-25.998,0-39.099c1.588,0,3.225,0,4.93,0
	C31.799,13.05,31.799,26.012,31.799,39.099z"/>
<path d="M36.252,8.439c1.67,0,3.248,0,4.941,0c0,10.126,0,20.191,0,30.42c-1.635,0-3.24,0-4.941,0
	C36.252,28.826,36.252,18.705,36.252,8.439z"/>
<path d="M45.333,16.079c1.67,0,3.248,0,4.941,0c0,7.583,0,15.12,0,22.78c-1.635,0-3.24,0-4.941,0
	C45.333,31.346,45.333,23.767,45.333,16.079z"/>
</svg>
