<?xml version="1.0" encoding="utf-8"?>
<!-- Generator: Adobe Illustrator 17.0.0, SVG Export Plug-In . SVG Version: 6.00 Build 0)  -->
<!DOCTYPE svg PUBLIC "-//W3C//DTD SVG 1.1//EN" "http://www.w3.org/Graphics/SVG/1.1/DTD/svg11.dtd">
<svg version="1.1" id="pagedaccueil-sansaction" xmlns="http://www.w3.org/2000/svg" xmlns:xlink="http://www.w3.org/1999/xlink"
	 x="0px" y="0px" width="23.77px" height="23.77px" viewBox="0 0 23.77 23.77" enable-background="new 0 0 23.77 23.77"
	 xml:space="preserve">
<path d="M11.885,0C5.322,0,0,5.321,0,11.885S5.322,23.77,11.885,23.77c6.565,0,11.885-5.32,11.885-11.885
	C23.77,5.321,18.449,0,11.885,0z M15.885,13.215h-3.008v2.977h-2v-2.977h-3V11.16h3V8.184h2v2.977h3.008V13.215z"/>
</svg>
